{
  "stats": {
    "suites": 1,
    "tests": 6,
    "passes": 6,
    "pending": 0,
    "failures": 0,
    "start": "2021-07-27T14:50:59.680Z",
    "end": "2021-07-27T14:51:16.726Z",
    "duration": 17046,
    "testsRegistered": 6,
    "passPercent": 100,
    "pendingPercent": 0,
    "other": 0,
    "hasOther": false,
    "skipped": 0,
    "hasSkipped": false
  },
  "results": [
    {
      "uuid": "c732c071-dea1-475b-8a09-953be55bef99",
      "title": "",
      "fullFile": "cypress/integration/MainPageTests/main-pageValidation_spec.js",
      "file": "cypress/integration/MainPageTests/main-pageValidation_spec.js",
      "beforeHooks": [],
      "afterHooks": [],
      "tests": [],
      "suites": [
        {
          "uuid": "259ae031-ae03-4f9b-aff9-d21c676db66a",
          "title": "Main page elements validation tests",
          "fullFile": "",
          "file": "",
          "beforeHooks": [],
          "afterHooks": [],
          "tests": [
            {
              "title": "Validates LoginBonus page",
              "fullTitle": "Main page elements validation tests Validates LoginBonus page",
              "timedOut": null,
              "duration": 6087,
              "state": "passed",
              "speed": "slow",
              "pass": true,
              "fail": false,
              "pending": false,
              "context": null,
              "code": "let amount = 500;\ncy.loginUI('arthur', 'poker123'); // mocking askForBonus API response to always have login bonus screen\ncy.log('Mocking the API response to get login bonus');\ncy.intercept('POST', Cypress.env('askForBonus'), req => {\n  req.reply(res => {\n    res.body.result.message = \"Bonus is granted!\";\n    res.body.result.amount = amount;\n  });\n}).as('askBonus');\ncy.wait('@askBonus').its('response.statusCode').should('equal', 200);\ncy.get('modal').invoke('show');\ncy.log('Verifying login bonus text');\n_loginBonus.inLoginBonusPage.loginBonusText().should('have.text', 'Login Bonus');\ncy.log('Verifying coin image in login bonus screen');\n_loginBonus.inLoginBonusPage.coinImage().should('have.css', 'background-image', 'url(\"https://pph.draft10.com/static/media/coin.a9412b42.svg\")');\ncy.log('Verifying if the bonus amount is equal to API response amount');\n_loginBonus.inLoginBonusPage.bonusAmount().should('have.text', amount).and('have.css', 'background-color', 'rgb(26, 77, 119)');\ncy.log('Verifying the poker cards in login bonus page');\n_loginBonus.inLoginBonusPage.pokerCards().should('exist').and('have.css', 'background-image', 'url(\"https://pph.draft10.com/static/media/dailyBonusCards.67bc4e19.png\")');\ncy.log('Verifying the Claim button visibility and the text');\n_loginBonus.inLoginBonusPage.claimButton().should('be.visible').and('have.text', 'Claim');\n_loginBonus.inLoginBonusPage.claimButton().click();",
              "err": {},
              "uuid": "a5feab5b-d7a5-413d-b4ee-539382e312d5",
              "parentUUID": "259ae031-ae03-4f9b-aff9-d21c676db66a",
              "isHook": false,
              "skipped": false
            },
            {
              "title": "Validates main page elements without clubs",
              "fullTitle": "Main page elements validation tests Validates main page elements without clubs",
              "timedOut": null,
              "duration": 3917,
              "state": "passed",
              "speed": "slow",
              "pass": true,
              "fail": false,
              "pending": false,
              "context": null,
              "code": "cy.log('Loggin in and taking API response data');\ncy.intercept('POST', Cypress.env('authenticate')).as('login');\ncy.loginUI(_accounts.default.withoutClub, _accounts.default.password);\ncy.wait('@login').its('response').then(loginResponse => {\n  expect(loginResponse.statusCode).to.equal(200);\n  cy.log('Verifying if the balance in mainLobby equals the balance from the API');\n  let balance = loginResponse.body.result.authenticationData[0].wallets[0].balance;\n  _mainLobbyElementsWithoutClubs.inMainLobbyWithoutClubs.leagueBalance().should('have.text', balance);\n});\ncy.log('Verifying if the text CLUB is there in the main lobby');\n_mainLobbyElementsWithoutClubs.inMainLobbyWithoutClubs.clubText().should('have.text', 'Clubs');\ncy.log('verifying the Message button existance and visibility');\n_mainLobbyElementsWithoutClubs.inMainLobbyWithoutClubs.messageButton().should('be.visible');\ncy.log('Verifying coin image inside the balance widget');\n_mainLobbyElementsWithoutClubs.inMainLobbyWithoutClubs.coinIcon().should('be.visible').should('have.css', 'background-image', 'url(\"https://pph.draft10.com/static/media/coin.a9412b42.svg\")');\ncy.log('Verifying \"Join Club\" button existance and its text');\n_mainLobbyElementsWithoutClubs.inMainLobbyWithoutClubs.joinClubWithoutClubs().should('be.visible').and('have.text', 'Join Club');\ncy.log('Verifying \"Create Club\" button existance and its text');\n_mainLobbyElementsWithoutClubs.inMainLobbyWithoutClubs.createClubWithoutClubs().should('be.visible').and('have.text', 'Create Club');\ncy.log('Verifying Home and Profile buttons on the footer');\n_mainLobbyElementsWithoutClubs.inMainLobbyWithoutClubs.home().should('have.class', 'footerItem home active').invoke('attr', 'aria-current').should('equal', 'page');\n_mainLobbyElementsWithoutClubs.inMainLobbyWithoutClubs.profile().click();\n_mainLobbyElementsWithoutClubs.inMainLobbyWithoutClubs.profile().should('have.class', 'active').invoke('attr', 'aria-current').should('equal', 'page');\n_mainLobbyElementsWithoutClubs.inMainLobbyWithoutClubs.home().should('not.have.class', 'footerItem home active').should('not.have.attr', 'aria-current');\n_mainLobbyElementsWithoutClubs.inMainLobbyWithoutClubs.home().click();\ncy.log('Verifying League Games text and its wrapper functionality');\n_mainLobbyElementsWithoutClubs.inMainLobbyWithoutClubs.leagueGamesText().should('have.text', 'League Games');\n_mainLobbyElementsWithoutClubs.inMainLobbyWithoutClubs.leagueWrapperButton();\ncy.get('.leagueWrapper ').invoke('attr', 'class').should('include', 'opened');\n_mainLobbyElementsWithoutClubs.inMainLobbyWithoutClubs.leagueWrapperButton().click();\ncy.get('.leagueWrapper ').invoke('attr', 'class').should('include', 'closed');\n_mainLobbyElementsWithoutClubs.inMainLobbyWithoutClubs.leagueWrapperButton().click();",
              "err": {},
              "uuid": "1846fcdf-8281-4964-b03b-c59b3ff453ec",
              "parentUUID": "259ae031-ae03-4f9b-aff9-d21c676db66a",
              "isHook": false,
              "skipped": false
            },
            {
              "title": "Validates main page elements with club/s",
              "fullTitle": "Main page elements validation tests Validates main page elements with club/s",
              "timedOut": null,
              "duration": 1843,
              "state": "passed",
              "speed": "slow",
              "pass": true,
              "fail": false,
              "pending": false,
              "context": null,
              "code": "",
              "err": {},
              "uuid": "62386a46-e3f4-4cc3-857a-e3f715f59f2d",
              "parentUUID": "259ae031-ae03-4f9b-aff9-d21c676db66a",
              "isHook": false,
              "skipped": false
            },
            {
              "title": "Validates the global skin(LeagueGames) available products",
              "fullTitle": "Main page elements validation tests Validates the global skin(LeagueGames) available products",
              "timedOut": null,
              "duration": 3929,
              "state": "passed",
              "speed": "slow",
              "pass": true,
              "fail": false,
              "pending": false,
              "context": null,
              "code": "// all possible products\nlet products = {\n  appProducts: [\"Sport\", \"Casino\", \"Live Casino\", \"Poker\"],\n  apiProducts: [\"betting\", \"casino\", \"liveCasino\", \"poker\"]\n};\ncy.log('Loging in to grab the APIs data from authenticate and allGames');\ncy.intercept('POST', Cypress.env('authenticate')).as('login');\ncy.intercept('GET', Cypress.env('allGames')).as('allGames');\ncy.loginUI(_accounts.default.withClub, _accounts.default.password);\ncy.wait('@login').its('response.statusCode').should('equal', 200);\ncy.wait('@allGames').its('response').then(availableProducts => {\n  console.log(availableProducts);\n  expect(availableProducts.statusCode).to.equal(200);\n  let keys = Object.keys(availableProducts.body); // removeing unnecessary \"code\" from the array, it is the last element\n  keys.pop();\n  for (let i = 0; i < products.apiProducts.length; i++) {\n    if (keys.includes(products.apiProducts[i])) {\n      cy.log('The ' + products.appProducts[i] + ' should be visible');\n      cy.get('.leagueContent').contains(products.appProducts[i]).should('be.visible').and('have.text', products.appProducts[i]);\n    } else {\n      cy.log('The ' + products.appProducts[i] + ' is not available for this club');\n    }\n  }\n});",
              "err": {},
              "uuid": "ff93b195-f6c5-4a6f-9e95-4066854a9bec",
              "parentUUID": "259ae031-ae03-4f9b-aff9-d21c676db66a",
              "isHook": false,
              "skipped": false
            },
            {
              "title": "Validates Create-Club flow",
              "fullTitle": "Main page elements validation tests Validates Create-Club flow",
              "timedOut": null,
              "duration": 386,
              "state": "passed",
              "speed": "slow",
              "pass": true,
              "fail": false,
              "pending": false,
              "context": null,
              "code": "",
              "err": {},
              "uuid": "548be88a-05a4-40ab-943d-5bd512432766",
              "parentUUID": "259ae031-ae03-4f9b-aff9-d21c676db66a",
              "isHook": false,
              "skipped": false
            },
            {
              "title": "Validates Join-Club flow",
              "fullTitle": "Main page elements validation tests Validates Join-Club flow",
              "timedOut": null,
              "duration": 697,
              "state": "passed",
              "speed": "slow",
              "pass": true,
              "fail": false,
              "pending": false,
              "context": null,
              "code": "",
              "err": {},
              "uuid": "6d28ae36-6f74-4916-84dd-6fa262386afd",
              "parentUUID": "259ae031-ae03-4f9b-aff9-d21c676db66a",
              "isHook": false,
              "skipped": false
            }
          ],
          "suites": [],
          "passes": [
            "a5feab5b-d7a5-413d-b4ee-539382e312d5",
            "1846fcdf-8281-4964-b03b-c59b3ff453ec",
            "62386a46-e3f4-4cc3-857a-e3f715f59f2d",
            "ff93b195-f6c5-4a6f-9e95-4066854a9bec",
            "548be88a-05a4-40ab-943d-5bd512432766",
            "6d28ae36-6f74-4916-84dd-6fa262386afd"
          ],
          "failures": [],
          "pending": [],
          "skipped": [],
          "duration": 16859,
          "root": false,
          "rootEmpty": false,
          "_timeout": 2000
        }
      ],
      "passes": [],
      "failures": [],
      "pending": [],
      "skipped": [],
      "duration": 0,
      "root": true,
      "rootEmpty": true,
      "_timeout": 2000
    }
  ],
  "meta": {
    "mocha": {
      "version": "7.0.1"
    },
    "mochawesome": {
      "options": {
        "quiet": false,
        "reportFilename": "mochawesome",
        "saveHtml": false,
        "saveJson": true,
        "consoleReporter": "spec",
        "useInlineDiffs": false,
        "code": true
      },
      "version": "6.2.1"
    },
    "marge": {
      "options": {
        "id": "default",
        "reportDir": "cypress/results/mochawesome",
        "overwrite": false,
        "html": false,
        "json": true
      },
      "version": "5.1.0"
    }
  }
}